{
  "schemaVersion": 1,
  "id": "stirling",
  "version": "${version}",

  "name": "Stirling",
  "description": "An engineering mod for Fabric",
  "authors": ["Layl"],
  "license": "MIT",

  "environment": "*",
  "entrypoints": {
    "main": [
      "com.celphase.stirling.StirlingMod"
    ],
    "client": [
      "com.celphase.stirling.client.StirlingClientMod"
    ],
    "cardinal-components-world": [
      "com.celphase.stirling.StirlingComponents"
    ]
  },
  "mixins": [
    "stirling.mixins.json"
  ],
  "depends": {
    "minecraft": "1.16.4",
    "fabricloader": ">=0.8.7",
    "fabric": "*",
    "fabric-language-kotlin": ">=1.4.21",
    "cardinal-components": ">=2.7.9"
  },
  "suggests": {},
  "custom": {
    "cardinal-components": [
      "stirling:mechanism_registry"
    ]
  }
}