{
  "type": "minecraft:crafting_shapeless",
  "ingredients": [
    {
      "item": "stirling:machine_casing"
    },
    {
      "item": "stirling:grinder_wheel"
    }
  ],
  "result": {
    "item": "stirling:grinder"
  }
}