{
  "type": "minecraft:crafting_shaped",
  "pattern": [
    "   ",
    "IWA",
    "   "
  ],
  "key": {
    "W": {
      "tag": "minecraft:planks"
    },
    "A": {
      "item": "stirling:axle"
    },
    "I": {
      "item": "minecraft:iron_ingot"
    }
  },
  "result": {
    "item": "stirling:hand_crank",
    "count": 1
  }
}