{
	"parent": "minecraft:block/block",
	"credit": "Made with Blockbench",
	"textures": {
		"0": "stirling:block/hand_crank",
		"particle": "stirling:block/hand_crank"
	},
	"elements": [
		{
			"from": [5, 5, 13],
			"to": [11, 11, 15],
			"rotation": {"angle": 0, "axis": "y", "origin": [8, 8, 16]},
			"faces": {
				"north": {"uv": [0, 4, 6, 10], "texture": "#0"},
				"east": {"uv": [4, 4, 6, 10], "texture": "#0"},
				"south": {"uv": [0, 4, 6, 10], "texture": "#0"},
				"west": {"uv": [0, 4, 2, 10], "texture": "#0"},
				"up": {"uv": [0, 4, 6, 6], "texture": "#0"},
				"down": {"uv": [0, 8, 6, 10], "texture": "#0"}
			}
		},
		{
			"from": [13, 7, 7],
			"to": [15, 9, 13],
			"rotation": {"angle": 0, "axis": "y", "origin": [14, 8, 13]},
			"faces": {
				"north": {"uv": [0, 10, 2, 12], "texture": "#0"},
				"east": {"uv": [0, 12, 6, 14], "texture": "#0"},
				"south": {"uv": [0, 10, 2, 12], "texture": "#0"},
				"west": {"uv": [0, 10, 6, 12], "texture": "#0"},
				"up": {"uv": [2, 10, 4, 16], "texture": "#0"},
				"down": {"uv": [0, 10, 2, 16], "texture": "#0"}
			}
		},
		{
			"from": [11, 6, 13],
			"to": [16, 10, 15],
			"rotation": {"angle": 0, "axis": "y", "origin": [11, 8, 16]},
			"faces": {
				"north": {"uv": [0, 4, 5, 8], "texture": "#0"},
				"east": {"uv": [2, 5, 4, 9], "texture": "#0"},
				"south": {"uv": [0, 6, 5, 10], "texture": "#0"},
				"west": {"uv": [0, 0, 2, 4], "texture": "#0"},
				"up": {"uv": [0, 4, 5, 6], "texture": "#0"},
				"down": {"uv": [0, 8, 5, 10], "texture": "#0"}
			}
		},
		{
			"from": [6, 6, 12],
			"to": [10, 10, 16],
			"rotation": {"angle": 0, "axis": "y", "origin": [8, 8, 13]},
			"faces": {
				"north": {"uv": [0, 0, 4, 4], "texture": "#0"},
				"east": {"uv": [0, 0, 4, 4], "texture": "#0"},
				"south": {"uv": [0, 0, 4, 4], "texture": "#0"},
				"west": {"uv": [0, 0, 4, 4], "texture": "#0"},
				"up": {"uv": [0, 0, 4, 4], "texture": "#0"},
				"down": {"uv": [0, 0, 4, 4], "texture": "#0"}
			}
		}
	]
}